info face="Sinkin Sans 800 Black" size=64 bold=1 italic=0 charset="" unicode=1 stretchH=100 smooth=1 aa=1 padding=0,0,0,0 spacing=1,1 outline=0
common lineHeight=64 base=48 scaleW=1024 scaleH=512 pages=1 packed=0 alphaChnl=4 redChnl=0 greenChnl=0 blueChnl=0
page id=0 file="sinkin-64_0.png"
chars count=217
char id=9    x=801   y=169   width=84    height=1     xoffset=-28   yoffset=63    xadvance=28    page=0  chnl=15
char id=10   x=425   y=187   width=93    height=1     xoffset=-31   yoffset=63    xadvance=31    page=0  chnl=15
char id=13   x=613   y=177   width=93    height=1     xoffset=-31   yoffset=63    xadvance=31    page=0  chnl=15
char id=16   x=519   y=182   width=93    height=1     xoffset=-31   yoffset=63    xadvance=31    page=0  chnl=15
char id=17   x=707   y=174   width=93    height=1     xoffset=-31   yoffset=63    xadvance=31    page=0  chnl=15
char id=18   x=605   y=184   width=42    height=1     xoffset=-14   yoffset=63    xadvance=14    page=0  chnl=15
char id=19   x=562   y=184   width=42    height=1     xoffset=-14   yoffset=63    xadvance=14    page=0  chnl=15
char id=20   x=519   y=184   width=42    height=1     xoffset=-14   yoffset=63    xadvance=14    page=0  chnl=15
char id=30   x=971   y=159   width=42    height=1     xoffset=-14   yoffset=63    xadvance=14    page=0  chnl=15
char id=31   x=886   y=162   width=84    height=1     xoffset=-28   yoffset=63    xadvance=28    page=0  chnl=15
char id=32   x=648   y=179   width=36    height=1     xoffset=-12   yoffset=63    xadvance=12    page=0  chnl=15
char id=33   x=128   y=130   width=8     height=34    xoffset=3     yoffset=15    xadvance=12    page=0  chnl=15
char id=34   x=779   y=155   width=15    height=14    xoffset=2     yoffset=14    xadvance=12    page=0  chnl=15
char id=35   x=784   y=120   width=23    height=33    xoffset=1     yoffset=15    xadvance=12    page=0  chnl=15
char id=36   x=703   y=47    width=22    height=39    xoffset=2     yoffset=14    xadvance=12    page=0  chnl=15
char id=37   x=827   y=84    width=23    height=34    xoffset=1     yoffset=15    xadvance=12    page=0  chnl=15
char id=38   x=991   y=82    width=22    height=34    xoffset=2     yoffset=15    xadvance=12    page=0  chnl=15
char id=39   x=795   y=154   width=7     height=14    xoffset=2     yoffset=14    xadvance=32    page=0  chnl=15
char id=40   x=770   y=0     width=14    height=45    xoffset=2     yoffset=11    xadvance=40    page=0  chnl=15
char id=41   x=785   y=0     width=14    height=45    xoffset=0     yoffset=11    xadvance=40    page=0  chnl=15
char id=42   x=606   y=157   width=18    height=19    xoffset=2     yoffset=14    xadvance=12    page=0  chnl=15
char id=43   x=484   y=159   width=21    height=24    xoffset=3     yoffset=20    xadvance=12    page=0  chnl=15
char id=44   x=770   y=155   width=8     height=16    xoffset=2     yoffset=40    xadvance=40    page=0  chnl=15
char id=45   x=936   y=152   width=15    height=7     xoffset=1     yoffset=31    xadvance=12    page=0  chnl=15
char id=46   x=885   y=152   width=8     height=9     xoffset=2     yoffset=40    xadvance=12    page=0  chnl=15
char id=47   x=1004  y=44    width=19    height=37    xoffset=-3    yoffset=13    xadvance=40    page=0  chnl=15
char id=48   x=571   y=88    width=30    height=34    xoffset=2     yoffset=15    xadvance=40    page=0  chnl=15
char id=49   x=941   y=118   width=16    height=33    xoffset=0     yoffset=15    xadvance=40    page=0  chnl=15
char id=50   x=576   y=123   width=27    height=33    xoffset=2     yoffset=15    xadvance=40    page=0  chnl=15
char id=51   x=693   y=87    width=28    height=34    xoffset=2     yoffset=15    xadvance=40    page=0  chnl=15
char id=52   x=832   y=119   width=23    height=33    xoffset=1     yoffset=15    xadvance=12    page=0  chnl=15
char id=53   x=0     y=132   width=22    height=34    xoffset=2     yoffset=15    xadvance=12    page=0  chnl=15
char id=54   x=23    y=131   width=22    height=34    xoffset=2     yoffset=15    xadvance=12    page=0  chnl=15
char id=55   x=760   y=121   width=23    height=33    xoffset=1     yoffset=15    xadvance=12    page=0  chnl=15
char id=56   x=46    y=131   width=22    height=34    xoffset=2     yoffset=15    xadvance=12    page=0  chnl=15
char id=57   x=899   y=83    width=22    height=34    xoffset=2     yoffset=15    xadvance=12    page=0  chnl=15
char id=58   x=475   y=159   width=8     height=26    xoffset=3     yoffset=23    xadvance=12    page=0  chnl=15
char id=59   x=977   y=117   width=8     height=33    xoffset=3     yoffset=23    xadvance=12    page=0  chnl=15
char id=60   x=231   y=160   width=17    height=27    xoffset=2     yoffset=18    xadvance=12    page=0  chnl=15
char id=61   x=733   y=156   width=21    height=17    xoffset=4     yoffset=23    xadvance=40    page=0  chnl=15
char id=62   x=249   y=160   width=17    height=27    xoffset=4     yoffset=18    xadvance=40    page=0  chnl=15
char id=63   x=922   y=83    width=22    height=34    xoffset=2     yoffset=15    xadvance=12    page=0  chnl=15
char id=64   x=351   y=90    width=25    height=35    xoffset=3     yoffset=14    xadvance=14    page=0  chnl=15
char id=65   x=182   y=129   width=38    height=33    xoffset=1     yoffset=15    xadvance=20    page=0  chnl=15
char id=66   x=367   y=126   width=30    height=33    xoffset=4     yoffset=15    xadvance=33    page=0  chnl=15
char id=67   x=538   y=89    width=32    height=34    xoffset=2     yoffset=15    xadvance=33    page=0  chnl=15
char id=68   x=398   y=126   width=30    height=33    xoffset=4     yoffset=15    xadvance=42    page=0  chnl=15
char id=69   x=519   y=124   width=28    height=33    xoffset=4     yoffset=15    xadvance=35    page=0  chnl=15
char id=70   x=922   y=118   width=18    height=33    xoffset=4     yoffset=15    xadvance=11    page=0  chnl=15
char id=71   x=664   y=87    width=28    height=34    xoffset=2     yoffset=15    xadvance=15    page=0  chnl=15
char id=72   x=631   y=123   width=26    height=33    xoffset=4     yoffset=15    xadvance=15    page=0  chnl=15
char id=73   x=968   y=117   width=8     height=33    xoffset=4     yoffset=15    xadvance=23    page=0  chnl=15
char id=74   x=775   y=85    width=25    height=34    xoffset=0     yoffset=15    xadvance=29    page=0  chnl=15
char id=75   x=856   y=118   width=22    height=33    xoffset=4     yoffset=15    xadvance=13    page=0  chnl=15
char id=76   x=658   y=123   width=26    height=33    xoffset=4     yoffset=15    xadvance=17    page=0  chnl=15
char id=77   x=968   y=82    width=22    height=34    xoffset=4     yoffset=15    xadvance=13    page=0  chnl=15
char id=78   x=710   y=122   width=24    height=33    xoffset=4     yoffset=15    xadvance=14    page=0  chnl=15
char id=79   x=470   y=90    width=34    height=34    xoffset=2     yoffset=15    xadvance=34    page=0  chnl=15
char id=80   x=460   y=125   width=29    height=33    xoffset=4     yoffset=15    xadvance=20    page=0  chnl=15
char id=81   x=812   y=46    width=35    height=37    xoffset=2     yoffset=15    xadvance=31    page=0  chnl=15
char id=82   x=334   y=126   width=32    height=33    xoffset=4     yoffset=15    xadvance=32    page=0  chnl=15
char id=83   x=602   y=88    width=30    height=34    xoffset=2     yoffset=15    xadvance=33    page=0  chnl=15
char id=84   x=429   y=126   width=30    height=33    xoffset=1     yoffset=15    xadvance=32    page=0  chnl=15
char id=85   x=505   y=89    width=32    height=34    xoffset=3     yoffset=15    xadvance=34    page=0  chnl=15
char id=86   x=297   y=126   width=36    height=33    xoffset=1     yoffset=15    xadvance=30    page=0  chnl=15
char id=87   x=137   y=130   width=44    height=33    xoffset=1     yoffset=15    xadvance=34    page=0  chnl=15
char id=88   x=260   y=126   width=36    height=33    xoffset=1     yoffset=15    xadvance=34    page=0  chnl=15
char id=89   x=490   y=125   width=28    height=33    xoffset=0     yoffset=15    xadvance=14    page=0  chnl=15
char id=90   x=604   y=123   width=26    height=33    xoffset=2     yoffset=15    xadvance=14    page=0  chnl=15
char id=91   x=813   y=0     width=12    height=45    xoffset=2     yoffset=11    xadvance=23    page=0  chnl=15
char id=92   x=984   y=44    width=19    height=37    xoffset=-1    yoffset=13    xadvance=29    page=0  chnl=15
char id=93   x=800   y=0     width=12    height=45    xoffset=0     yoffset=11    xadvance=23    page=0  chnl=15
char id=94   x=706   y=156   width=26    height=17    xoffset=3     yoffset=15    xadvance=30    page=0  chnl=15
char id=95   x=952   y=152   width=28    height=6     xoffset=0     yoffset=50    xadvance=40    page=0  chnl=15
char id=96   x=824   y=154   width=12    height=12    xoffset=8     yoffset=8     xadvance=16    page=0  chnl=15
char id=97   x=78    y=165   width=26    height=27    xoffset=2     yoffset=22    xadvance=35    page=0  chnl=15
char id=98   x=241   y=90    width=27    height=35    xoffset=3     yoffset=14    xadvance=35    page=0  chnl=15
char id=99   x=159   y=164   width=25    height=27    xoffset=2     yoffset=22    xadvance=37    page=0  chnl=15
char id=100  x=185   y=92    width=27    height=35    xoffset=2     yoffset=14    xadvance=34    page=0  chnl=15
char id=101  x=22    y=167   width=27    height=27    xoffset=2     yoffset=22    xadvance=32    page=0  chnl=15
char id=102  x=92    y=130   width=20    height=34    xoffset=1     yoffset=14    xadvance=39    page=0  chnl=15
char id=103  x=297   y=90    width=27    height=35    xoffset=2     yoffset=22    xadvance=38    page=0  chnl=15
char id=104  x=722   y=87    width=26    height=34    xoffset=3     yoffset=14    xadvance=15    page=0  chnl=15
char id=105  x=422   y=90    width=8     height=35    xoffset=3     yoffset=13    xadvance=29    page=0  chnl=15
char id=106  x=929   y=0     width=14    height=44    xoffset=-3    yoffset=13    xadvance=37    page=0  chnl=15
char id=107  x=633   y=88    width=30    height=34    xoffset=3     yoffset=14    xadvance=30    page=0  chnl=15
char id=108  x=1014  y=82    width=8     height=34    xoffset=3     yoffset=14    xadvance=43    page=0  chnl=15
char id=109  x=306   y=160   width=37    height=26    xoffset=3     yoffset=22    xadvance=38    page=0  chnl=15
char id=110  x=404   y=160   width=26    height=26    xoffset=3     yoffset=22    xadvance=39    page=0  chnl=15
char id=111  x=50    y=166   width=27    height=27    xoffset=2     yoffset=22    xadvance=35    page=0  chnl=15
char id=112  x=269   y=90    width=27    height=35    xoffset=3     yoffset=22    xadvance=39    page=0  chnl=15
char id=113  x=213   y=90    width=27    height=35    xoffset=2     yoffset=22    xadvance=37    page=0  chnl=15
char id=114  x=457   y=160   width=17    height=26    xoffset=3     yoffset=22    xadvance=35    page=0  chnl=15
char id=115  x=132   y=165   width=26    height=27    xoffset=1     yoffset=22    xadvance=32    page=0  chnl=15
char id=116  x=69    y=130   width=22    height=34    xoffset=0     yoffset=15    xadvance=38    page=0  chnl=15
char id=117  x=105   y=165   width=26    height=27    xoffset=3     yoffset=22    xadvance=38    page=0  chnl=15
char id=118  x=344   y=160   width=29    height=26    xoffset=0     yoffset=22    xadvance=47    page=0  chnl=15
char id=119  x=267   y=160   width=38    height=26    xoffset=0     yoffset=22    xadvance=38    page=0  chnl=15
char id=120  x=374   y=160   width=29    height=26    xoffset=1     yoffset=22    xadvance=39    page=0  chnl=15
char id=121  x=153   y=93    width=31    height=35    xoffset=0     yoffset=22    xadvance=35    page=0  chnl=15
char id=122  x=431   y=160   width=25    height=26    xoffset=2     yoffset=22    xadvance=14    page=0  chnl=15
char id=123  x=754   y=0     width=15    height=45    xoffset=1     yoffset=11    xadvance=17    page=0  chnl=15
char id=124  x=8     y=94    width=7     height=37    xoffset=5     yoffset=13    xadvance=14    page=0  chnl=15
char id=125  x=738   y=0     width=15    height=45    xoffset=0     yoffset=11    xadvance=32    page=0  chnl=15
char id=126  x=860   y=152   width=24    height=10    xoffset=1     yoffset=30    xadvance=28    page=0  chnl=15
char id=127  x=231   y=188   width=96    height=1     xoffset=-32   yoffset=63    xadvance=32    page=0  chnl=15
char id=160  x=328   y=187   width=96    height=1     xoffset=-32   yoffset=63    xadvance=32    page=0  chnl=15
char id=161  x=958   y=118   width=9     height=33    xoffset=3     yoffset=15    xadvance=30    page=0  chnl=15
char id=162  x=801   y=85    width=25    height=34    xoffset=2     yoffset=15    xadvance=31    page=0  chnl=15
char id=163  x=548   y=124   width=27    height=33    xoffset=1     yoffset=15    xadvance=32    page=0  chnl=15
char id=164  x=506   y=159   width=21    height=22    xoffset=2     yoffset=21    xadvance=32    page=0  chnl=15
char id=165  x=221   y=126   width=38    height=33    xoffset=1     yoffset=15    xadvance=32    page=0  chnl=15
char id=166  x=0     y=94    width=7     height=37    xoffset=4     yoffset=13    xadvance=12    page=0  chnl=15
char id=167  x=447   y=48    width=25    height=41    xoffset=2     yoffset=15    xadvance=21    page=0  chnl=15
char id=168  x=903   y=152   width=16    height=8     xoffset=6     yoffset=12    xadvance=12    page=0  chnl=15
char id=169  x=52    y=93    width=35    height=36    xoffset=2     yoffset=14    xadvance=20    page=0  chnl=15
char id=170  x=688   y=156   width=17    height=18    xoffset=1     yoffset=15    xadvance=12    page=0  chnl=15
char id=171  x=579   y=157   width=26    height=20    xoffset=2     yoffset=28    xadvance=14    page=0  chnl=15
char id=172  x=803   y=154   width=20    height=13    xoffset=1     yoffset=33    xadvance=12    page=0  chnl=15
char id=173  x=920   y=152   width=15    height=7     xoffset=1     yoffset=31    xadvance=12    page=0  chnl=15
char id=174  x=16    y=94    width=35    height=36    xoffset=2     yoffset=14    xadvance=40    page=0  chnl=15
char id=175  x=981   y=151   width=15    height=5     xoffset=9     yoffset=14    xadvance=12    page=0  chnl=15
char id=176  x=755   y=156   width=14    height=16    xoffset=1     yoffset=15    xadvance=14    page=0  chnl=15
char id=177  x=879   y=118   width=21    height=33    xoffset=3     yoffset=15    xadvance=12    page=0  chnl=15
char id=178  x=642   y=157   width=15    height=19    xoffset=2     yoffset=15    xadvance=26    page=0  chnl=15
char id=179  x=625   y=157   width=16    height=19    xoffset=2     yoffset=15    xadvance=39    page=0  chnl=15
char id=180  x=837   y=153   width=12    height=12    xoffset=10    yoffset=8     xadvance=17    page=0  chnl=15
char id=181  x=400   y=90    width=21    height=35    xoffset=3     yoffset=22    xadvance=12    page=0  chnl=15
char id=182  x=196   y=48    width=30    height=41    xoffset=0     yoffset=15    xadvance=29    page=0  chnl=15
char id=183  x=894   y=152   width=8     height=9     xoffset=2     yoffset=27    xadvance=20    page=0  chnl=15
char id=184  x=850   y=153   width=9     height=11    xoffset=12    yoffset=47    xadvance=12    page=0  chnl=15
char id=185  x=658   y=157   width=10    height=19    xoffset=1     yoffset=15    xadvance=12    page=0  chnl=15
char id=186  x=669   y=157   width=18    height=18    xoffset=1     yoffset=15    xadvance=12    page=0  chnl=15
char id=187  x=550   y=158   width=28    height=20    xoffset=2     yoffset=28    xadvance=31    page=0  chnl=15
char id=188  x=851   y=83    width=23    height=34    xoffset=1     yoffset=15    xadvance=12    page=0  chnl=15
char id=189  x=875   y=83    width=23    height=34    xoffset=1     yoffset=15    xadvance=12    page=0  chnl=15
char id=190  x=431   y=90    width=38    height=34    xoffset=2     yoffset=15    xadvance=32    page=0  chnl=15
char id=191  x=749   y=86    width=25    height=34    xoffset=2     yoffset=15    xadvance=17    page=0  chnl=15
char id=192  x=246   y=0     width=38    height=47    xoffset=1     yoffset=1     xadvance=39    page=0  chnl=15
char id=193  x=207   y=0     width=38    height=47    xoffset=1     yoffset=1     xadvance=33    page=0  chnl=15
char id=194  x=590   y=0     width=38    height=46    xoffset=1     yoffset=2     xadvance=23    page=0  chnl=15
char id=195  x=982   y=0     width=35    height=43    xoffset=1     yoffset=5     xadvance=18    page=0  chnl=15
char id=196  x=0     y=50    width=34    height=43    xoffset=0     yoffset=5     xadvance=17    page=0  chnl=15
char id=197  x=551   y=0     width=38    height=46    xoffset=1     yoffset=2     xadvance=32    page=0  chnl=15
char id=198  x=685   y=122   width=24    height=33    xoffset=0     yoffset=15    xadvance=12    page=0  chnl=15
char id=199  x=35    y=49    width=31    height=43    xoffset=2     yoffset=15    xadvance=29    page=0  chnl=15
char id=200  x=415   y=0     width=28    height=47    xoffset=4     yoffset=1     xadvance=30    page=0  chnl=15
char id=201  x=473   y=0     width=28    height=47    xoffset=4     yoffset=1     xadvance=19    page=0  chnl=15
char id=202  x=660   y=0     width=28    height=46    xoffset=4     yoffset=2     xadvance=21    page=0  chnl=15
char id=203  x=126   y=49    width=27    height=43    xoffset=4     yoffset=5     xadvance=30    page=0  chnl=15
char id=204  x=525   y=0     width=12    height=47    xoffset=1     yoffset=1     xadvance=14    page=0  chnl=15
char id=205  x=538   y=0     width=12    height=47    xoffset=3     yoffset=1     xadvance=33    page=0  chnl=15
char id=206  x=689   y=0     width=17    height=46    xoffset=-1    yoffset=2     xadvance=13    page=0  chnl=15
char id=207  x=179   y=48    width=16    height=43    xoffset=-1    yoffset=5     xadvance=35    page=0  chnl=15
char id=208  x=808   y=120   width=23    height=33    xoffset=1     yoffset=15    xadvance=12    page=0  chnl=15
char id=209  x=67    y=49    width=30    height=43    xoffset=4     yoffset=5     xadvance=21    page=0  chnl=15
char id=210  x=67    y=0     width=34    height=48    xoffset=2     yoffset=1     xadvance=43    page=0  chnl=15
char id=211  x=32    y=0     width=34    height=48    xoffset=2     yoffset=1     xadvance=33    page=0  chnl=15
char id=212  x=285   y=0     width=34    height=47    xoffset=2     yoffset=2     xadvance=37    page=0  chnl=15
char id=213  x=826   y=0     width=34    height=44    xoffset=2     yoffset=5     xadvance=30    page=0  chnl=15
char id=214  x=861   y=0     width=34    height=44    xoffset=2     yoffset=5     xadvance=38    page=0  chnl=15
char id=215  x=528   y=158   width=21    height=22    xoffset=3     yoffset=21    xadvance=30    page=0  chnl=15
char id=216  x=113   y=93    width=22    height=36    xoffset=2     yoffset=15    xadvance=12    page=0  chnl=15
char id=217  x=135   y=0     width=32    height=48    xoffset=3     yoffset=1     xadvance=40    page=0  chnl=15
char id=218  x=102   y=0     width=32    height=48    xoffset=3     yoffset=1     xadvance=40    page=0  chnl=15
char id=219  x=320   y=0     width=32    height=47    xoffset=3     yoffset=2     xadvance=40    page=0  chnl=15
char id=220  x=896   y=0     width=32    height=44    xoffset=3     yoffset=5     xadvance=40    page=0  chnl=15
char id=221  x=168   y=0     width=38    height=47    xoffset=0     yoffset=1     xadvance=40    page=0  chnl=15
char id=222  x=901   y=118   width=20    height=33    xoffset=4     yoffset=15    xadvance=12    page=0  chnl=15
char id=223  x=377   y=90    width=22    height=35    xoffset=2     yoffset=14    xadvance=12    page=0  chnl=15
char id=224  x=393   y=48    width=26    height=41    xoffset=2     yoffset=8     xadvance=34    page=0  chnl=15
char id=225  x=420   y=48    width=26    height=41    xoffset=2     yoffset=8     xadvance=34    page=0  chnl=15
char id=226  x=610   y=47    width=26    height=40    xoffset=2     yoffset=9     xadvance=34    page=0  chnl=15
char id=227  x=785   y=46    width=26    height=38    xoffset=2     yoffset=11    xadvance=15    page=0  chnl=15
char id=228  x=958   y=44    width=25    height=37    xoffset=2     yoffset=12    xadvance=34    page=0  chnl=15
char id=229  x=650   y=47    width=26    height=39    xoffset=2     yoffset=10    xadvance=15    page=0  chnl=15
char id=230  x=185   y=163   width=22    height=27    xoffset=2     yoffset=22    xadvance=12    page=0  chnl=15
char id=231  x=88    y=93    width=24    height=36    xoffset=2     yoffset=22    xadvance=15    page=0  chnl=15
char id=232  x=283   y=48    width=27    height=41    xoffset=2     yoffset=8     xadvance=39    page=0  chnl=15
char id=233  x=255   y=48    width=27    height=41    xoffset=2     yoffset=8     xadvance=15    page=0  chnl=15
char id=234  x=473   y=48    width=27    height=40    xoffset=2     yoffset=9     xadvance=37    page=0  chnl=15
char id=235  x=848   y=45    width=28    height=37    xoffset=1     yoffset=12    xadvance=38    page=0  chnl=15
char id=236  x=637   y=47    width=12    height=40    xoffset=0     yoffset=8     xadvance=39    page=0  chnl=15
char id=237  x=744   y=46    width=12    height=39    xoffset=1     yoffset=9     xadvance=39    page=0  chnl=15
char id=238  x=726   y=46    width=17    height=39    xoffset=-1    yoffset=9     xadvance=39    page=0  chnl=15
char id=239  x=136   y=93    width=16    height=36    xoffset=-1    yoffset=12    xadvance=39    page=0  chnl=15
char id=240  x=325   y=90    width=25    height=35    xoffset=2     yoffset=14    xadvance=30    page=0  chnl=15
char id=241  x=905   y=45    width=26    height=37    xoffset=3     yoffset=11    xadvance=27    page=0  chnl=15
char id=242  x=311   y=48    width=27    height=41    xoffset=2     yoffset=8     xadvance=38    page=0  chnl=15
char id=243  x=227   y=48    width=27    height=41    xoffset=2     yoffset=8     xadvance=39    page=0  chnl=15
char id=244  x=501   y=48    width=27    height=40    xoffset=2     yoffset=9     xadvance=38    page=0  chnl=15
char id=245  x=757   y=46    width=27    height=38    xoffset=2     yoffset=11    xadvance=38    page=0  chnl=15
char id=246  x=877   y=45    width=27    height=37    xoffset=2     yoffset=12    xadvance=38    page=0  chnl=15
char id=247  x=0     y=167   width=21    height=28    xoffset=3     yoffset=18    xadvance=12    page=0  chnl=15
char id=248  x=986   y=117   width=22    height=31    xoffset=2     yoffset=20    xadvance=12    page=0  chnl=15
char id=249  x=339   y=48    width=26    height=41    xoffset=3     yoffset=8     xadvance=31    page=0  chnl=15
char id=250  x=366   y=48    width=26    height=41    xoffset=3     yoffset=8     xadvance=35    page=0  chnl=15
char id=251  x=583   y=47    width=26    height=40    xoffset=3     yoffset=9     xadvance=29    page=0  chnl=15
char id=252  x=932   y=45    width=25    height=37    xoffset=3     yoffset=12    xadvance=31    page=0  chnl=15
char id=253  x=0     y=0     width=31    height=49    xoffset=0     yoffset=8     xadvance=31    page=0  chnl=15
char id=254  x=98    y=49    width=27    height=43    xoffset=3     yoffset=14    xadvance=28    page=0  chnl=15
char id=255  x=707   y=0     width=30    height=45    xoffset=1     yoffset=12    xadvance=31    page=0  chnl=15
char id=305  x=1009  y=117   width=8     height=26    xoffset=4     yoffset=22    xadvance=12    page=0  chnl=15
char id=321  x=735   y=122   width=24    height=33    xoffset=0     yoffset=15    xadvance=12    page=0  chnl=15
char id=322  x=113   y=130   width=14    height=34    xoffset=0     yoffset=14    xadvance=12    page=0  chnl=15
char id=338  x=945   y=83    width=22    height=34    xoffset=2     yoffset=15    xadvance=12    page=0  chnl=15
char id=339  x=208   y=163   width=22    height=27    xoffset=2     yoffset=22    xadvance=12    page=0  chnl=15
char id=352  x=384   y=0     width=30    height=47    xoffset=2     yoffset=2     xadvance=40    page=0  chnl=15
char id=353  x=529   y=48    width=26    height=40    xoffset=1     yoffset=9     xadvance=39    page=0  chnl=15
char id=376  x=944   y=0     width=37    height=43    xoffset=1     yoffset=5     xadvance=48    page=0  chnl=15
char id=381  x=629   y=0     width=30    height=46    xoffset=2     yoffset=2     xadvance=35    page=0  chnl=15
char id=382  x=677   y=47    width=25    height=39    xoffset=2     yoffset=9     xadvance=31    page=0  chnl=15
char id=402  x=154   y=49    width=24    height=43    xoffset=-4    yoffset=14    xadvance=31    page=0  chnl=15
char id=536  x=444   y=0     width=28    height=47    xoffset=2     yoffset=15    xadvance=15    page=0  chnl=15
char id=537  x=556   y=47    width=26    height=40    xoffset=1     yoffset=22    xadvance=15    page=0  chnl=15
char id=538  x=353   y=0     width=30    height=47    xoffset=1     yoffset=15    xadvance=42    page=0  chnl=15
char id=539  x=502   y=0     width=22    height=47    xoffset=0     yoffset=15    xadvance=27    page=0  chnl=15
